{
    "alt-speed-down": 800, 
    "alt-speed-enabled": false, 
    "alt-speed-time-begin": 540, 
    "alt-speed-time-day": 127, 
    "alt-speed-time-enabled": false, 
    "alt-speed-time-end": 1020, 
    "alt-speed-up": 200, 
    "bind-address-ipv4": "0.0.0.0", 
    "bind-address-ipv6": "::", 
    "blocklist-enabled": false, 
    "blocklist-updates-enabled": true, 
    "blocklist-url": "http://www.example.com/blocklist", 
    "cache-size-mb": 4, 
    "compact-view": false, 
    "dht-enabled": true, 
    "download-dir": "/mnt/home/files", 
    "encryption": 1, 
    "idle-seeding-limit": 3, 
    "idle-seeding-limit-enabled": true, 
    "incomplete-dir": "/root/Downloads", 
    "incomplete-dir-enabled": false, 
    "inhibit-desktop-hibernation": true, 
    "lazy-bitfield-enabled": true, 
    "lpd-enabled": true, 
    "main-window-height": 746, 
    "main-window-is-maximized": 1, 
    "main-window-width": 1366, 
    "main-window-x": 0, 
    "main-window-y": 0, 
    "message-level": 2, 
    "open-dialog-dir": "/root", 
    "open-file-limit": 32, 
    "peer-congestion-algorithm": "", 
    "peer-limit-global": 260, 
    "peer-limit-per-torrent": 80, 
    "peer-port": 51413, 
    "peer-port-random-high": 65535, 
    "peer-port-random-low": 49152, 
    "peer-port-random-on-start": false, 
    "peer-socket-tos": "default", 
    "pex-enabled": true, 
    "play-download-complete-sound": true, 
    "port-forwarding-enabled": true, 
    "preallocation": 1, 
    "prefetch-enabled": 1, 
    "prompt-before-exit": true, 
    "ratio-limit": 0.1000, 
    "ratio-limit-enabled": true, 
    "recent-download-dir-1": "/mnt/home/files/videos/pridefc", 
    "recent-download-dir-2": "/mnt/home/files/books", 
    "recent-download-dir-3": "/mnt/home/files/videos/ufc", 
    "recent-download-dir-4": "/mnt/home/files/games/ps2", 
    "rename-partial-files": true, 
    "rpc-authentication-required": false, 
    "rpc-bind-address": "0.0.0.0", 
    "rpc-enabled": false, 
    "rpc-password": "{e347a492625851f7b7d042c94f82e360fba32ee2GAgp3hdy", 
    "rpc-port": 9091, 
    "rpc-url": "/transmission/", 
    "rpc-username": "", 
    "rpc-whitelist": "127.0.0.1", 
    "rpc-whitelist-enabled": true, 
    "script-torrent-done-enabled": false, 
    "script-torrent-done-filename": "/root", 
    "show-backup-trackers": false, 
    "show-desktop-notification": true, 
    "show-extra-peer-details": false, 
    "show-filterbar": true, 
    "show-notification-area-icon": true, 
    "show-options-window": true, 
    "show-statusbar": true, 
    "show-toolbar": false, 
    "show-tracker-scrapes": false, 
    "sort-mode": "sort-by-progress", 
    "sort-reversed": false, 
    "speed-limit-down": 100, 
    "speed-limit-down-enabled": false, 
    "speed-limit-up": 400, 
    "speed-limit-up-enabled": true, 
    "start-added-torrents": true, 
    "statusbar-stats": "total-ratio", 
    "trash-original-torrent-files": false, 
    "umask": 18, 
    "upload-slots-per-torrent": 14, 
    "user-has-given-informed-consent": true, 
    "watch-dir": "/root/torrents", 
    "watch-dir-enabled": true
}
